<?xml version="1.0" encoding="UTF-8" standalone="no"?>
<!DOCTYPE svg PUBLIC "-//W3C//DTD SVG 1.1//EN" "http://www.w3.org/Graphics/SVG/1.1/DTD/svg11.dtd">
<svg width="100%" height="100%" viewBox="0 0 37 37" version="1.1" xmlns="http://www.w3.org/2000/svg" xmlns:xlink="http://www.w3.org/1999/xlink" xml:space="preserve" xmlns:serif="http://www.serif.com/" style="fill-rule:evenodd;clip-rule:evenodd;stroke-linecap:round;stroke-linejoin:round;stroke-miterlimit:1.5;">
    <g>
        <circle cx="18.2" cy="18.2" r="17.333" style="fill:rgb(0,31,53);stroke:white;stroke-width:1.73px;"/>
        <g transform="matrix(1.1637,0,0,1.1637,-5860.15,-1604.96)">
            <g transform="matrix(0.486326,0,0,0.55071,2328.5,620.95)">
                <path d="M5595.65,1398.37L5588.65,1398.54L5588.65,1420.21L5610.32,1419.87L5610.21,1398.3L5608.13,1398.3L5604.87,1398.3" style="fill:none;stroke:white;stroke-width:2.15px;"/>
            </g>
            <g transform="matrix(1,0,0,1,0.307199,0.2048)">
                <g transform="matrix(1,0,0,1,-473.67,0.214245)">
                    <path d="M5525.3,1398.07L5525.15,1387.07" style="fill:none;stroke:white;stroke-width:1.12px;"/>
                </g>
                <g transform="matrix(1,0,0,1,-474.073,0.0320449)">
                    <path d="M5523.35,1388.45L5525.55,1386.87" style="fill:none;stroke:white;stroke-width:1.12px;"/>
                </g>
                <g transform="matrix(-1,0,0,1,10577,0.0260458)">
                    <path d="M5523.35,1388.6L5525.55,1386.87" style="fill:none;stroke:white;stroke-width:1.12px;"/>
                </g>
            </g>
        </g>
    </g>
</svg>
